Removed Pin From Net: NetName=RC5 Pin=RGBR1-1
Removed Pin From Net: NetName=RC4 Pin=RGBR2-1
Removed Pin From Net: NetName=RC6 Pin=RGBR3-1
Added Pin To Net: NetName=RC6 Pin=RGBR1-1
Added Pin To Net: NetName=RC5 Pin=RGBR2-1
Added Pin To Net: NetName=RC4 Pin=RGBR3-1
