Removed Pin From Net: NetName=VCC_3.3V Pin=CC3-1
Removed Pin From Net: NetName=GND Pin=CC3-2
Removed Pin From Net: NetName=VCC_5V Pin=CC4-1
Removed Pin From Net: NetName=GND Pin=CC4-2
Removed Pin From Net: NetName=GND Pin=CONVDWN-2
Removed Pin From Net: NetName=GND Pin=CONVDWN-3
Removed Pin From Net: NetName=VCC_12V Pin=CONVDWN-4
Removed Pin From Net: NetName=VCC_12V Pin=CONVDWN-5
Removed Pin From Net: NetName=VCC_12V Pin=CONVDWN-6
Removed Pin From Net: NetName=GND Pin=CONVDWN-TP
Removed Pin From Net: NetName=VCC_3.3V Pin=CONVUP-2
Removed Pin From Net: NetName=VCC_5V Pin=CONVUP-3
Removed Pin From Net: NetName=GND Pin=CONVUP-6
Removed Pin From Net: NetName=GND Pin=RC2-1
Removed Pin From Net: NetName=VCC_12V Pin=RC2-2
Removed Pin From Net: NetName=GND Pin=RC3-1
Removed Pin From Net: NetName=VCC_12V Pin=RC3-2
Removed Pin From Net: NetName=GND Pin=RC4-1
Removed Pin From Net: NetName=GND Pin=RC6-1
Removed Pin From Net: NetName=GND Pin=RC7-2
Removed Pin From Net: NetName=GND Pin=RC9-1
Removed Pin From Net: NetName=VCC_3.3V Pin=RC9-2
Removed Pin From Net: NetName=VCC_3.3V Pin=RC11-2
Removed Pin From Net: NetName=VCC_3.3V Pin=RL1-2
Removed Pin From Net: NetName=VCC_12V Pin=RR1-2
Removed Pin From Net: NetName=GND Pin=RR2-1
Removed Pin From Net: NetName=GND Pin=RR3-2
Removed Pin From Net: NetName=VCC_3.3V Pin=RR8-2
Removed Pin From Net: NetName=GND Pin=RR9-1
Removed Member From Class: ClassName=Regulator Member=CC1
Removed Member From Class: ClassName=Regulator Member=CC2
Removed Member From Class: ClassName=Regulator Member=CC3
Removed Member From Class: ClassName=Regulator Member=CC4
Removed Member From Class: ClassName=Regulator Member=CONVDWN
Removed Member From Class: ClassName=Regulator Member=CONVUP
Removed Member From Class: ClassName=Regulator Member=RC4
Removed Member From Class: ClassName=Regulator Member=RC5
Removed Member From Class: ClassName=Regulator Member=RC6
Removed Member From Class: ClassName=Regulator Member=RC7
Removed Member From Class: ClassName=Regulator Member=RC9
Removed Member From Class: ClassName=Regulator Member=RC11
Removed Member From Class: ClassName=Regulator Member=RR2
Removed Member From Class: ClassName=Regulator Member=RR3
Removed Member From Class: ClassName=Regulator Member=RR4
Removed Member From Class: ClassName=Regulator Member=RR8
Removed Member From Class: ClassName=Regulator Member=RR9
Change Component DesignItemId : Designator=RC2 Old DesignItemId=Cap New DesignItemId=1254
Change Component DesignItemId : Designator=RC3 Old DesignItemId=Cap New DesignItemId=1265
Change Component DesignItemId : Designator=RL1 Old DesignItemId=Inductor New DesignItemId=3007
Change Component DesignItemId : Designator=RR1 Old DesignItemId=Res1 New DesignItemId=2684
Change Component Footprint: Designator=RL1 Old Footprint=0402-A New Footprint=INDM120120X800
Change Component Footprint: Designator=RR1 Old Footprint=AXIAL-0.3 New Footprint=RESC2012X60
Change Component Footprint: Designator=RC2 Old Footprint=RAD-0.3 New Footprint=CAPMP7343X43
Change Component Comment : Designator=RC3 Old Comment=Cap New Comment=22u
Change Component Comment : Designator=RC2 Old Comment=Cap New Comment=220u
Change Component Comment : Designator=RL1 Old Comment=Inductor New Comment=6u8
Change Component Comment : Designator=RR1 Old Comment=Res1 New Comment=3k01
Change Component Description : Designator=RC3 Old Description=Capacitor New Description=Aluminum Electrolytic Capacitors
Change Component Library : Designator=RC3 Old Library=Miscellaneous Devices.IntLib New Library=SCT.SVNDbLib
Added Component: Designator=RD1(DIOM7959X262)
Added Component: Designator=REG1(SOIC127P600X173-8N)
Added Component: Designator=REG2(SOT230P700X180-4N)
Added Component: Designator=RR2??(RESC2012X65)
Added Pin To Net: NetName=VCC_5V Pin=RC2-1
Added Pin To Net: NetName=GND Pin=RC2-2
Added Pin To Net: NetName=VCC_3.3V Pin=RC3-1
Added Pin To Net: NetName=GND Pin=RC3-2
Added Pin To Net: NetName=GND Pin=RD1-2
Added Pin To Net: NetName=GND Pin=REG1-1
Added Pin To Net: NetName=VCC_12V Pin=REG1-2
Added Pin To Net: NetName=GND Pin=REG1-5
Added Pin To Net: NetName=GND Pin=REG1-6
Added Pin To Net: NetName=GND Pin=REG1-7
Added Pin To Net: NetName=GND Pin=REG1-8
Added Pin To Net: NetName=VCC_5V Pin=REG2-1
Added Pin To Net: NetName=GND Pin=REG2-2
Added Pin To Net: NetName=VCC_3.3V Pin=REG2-3
Added Pin To Net: NetName=VCC_5V Pin=RL1-2
Added Pin To Net: NetName=VCC_5V Pin=RR1-2
Added Pin To Net: NetName=GND Pin=RR2??-1
Added Pin To Net: NetName=NetRD1_1 Pin=RD1-1
Added Pin To Net: NetName=NetRD1_1 Pin=REG1-3
Added Pin To Net: NetName=NetRD1_1 Pin=RL1-1
Added Net: Name=NetRD1_1
Added Pin To Net: NetName=NetREG1_4 Pin=REG1-4
Added Pin To Net: NetName=NetREG1_4 Pin=RR1-1
Added Pin To Net: NetName=NetREG1_4 Pin=RR2??-2
Added Net: Name=NetREG1_4
Added Member To Class: ClassName=Regulator Member=Component RD1 SSC54
Added Member To Class: ClassName=Regulator Member=Component REG1 Component_1
Added Member To Class: ClassName=Regulator Member=Component REG2 Component_1
Added Member To Class: ClassName=Regulator Member=Component RR2?? 910R
