Added Component: Designator=RC1(CAPMP7343X43)
Added Component: Designator=RC3(CAPMP7343X43)
Added Pin To Net: NetName=VCC_12V Pin=RC1-1
Added Pin To Net: NetName=GND Pin=RC1-2
Added Pin To Net: NetName=VCC_3.3V Pin=RC3-1
Added Pin To Net: NetName=GND Pin=RC3-2
Added Member To Class: ClassName=Regulator Member=Component RC1 220u
Added Member To Class: ClassName=Regulator Member=Component RC3 220u
