Change Component Designator: OldDesignator=SW1 NewDesignator=LOCK
Change Component Designator: OldDesignator=SW2 NewDesignator=UNLOCK
Change Component Designator: OldDesignator=SW3 NewDesignator=PAIR
Change Net Name : Old Net Name=NetRPL1_1 New Net Name=NetLOCK_2
Change Net Name : Old Net Name=NetRPL3_1 New Net Name=NetPAIR_2
