Added Component: Designator=NFC(QFN50P500X500X100_HS-33N)
Added Component: Designator=Q1(DFN90P160X70-4N)
Added Pin To Net: NetName=RX1 Pin=NFC-5
Added Pin To Net: NetName=RX2 Pin=NFC-6
Added Pin To Net: NetName=INT_IN Pin=NFC-12
Added Pin To Net: NetName=VCC Pin=NFC-13
Added Pin To Net: NetName=INT_OUT Pin=NFC-14
Added Pin To Net: NetName=SS Pin=NFC-15
Added Pin To Net: NetName=MISO Pin=NFC-16
Added Pin To Net: NetName=MOSI Pin=NFC-17
Added Pin To Net: NetName=CLK Pin=NFC-18
Added Pin To Net: NetName=GND Pin=NFC-22
Added Pin To Net: NetName=XIN Pin=NFC-29
Added Pin To Net: NetName=XOUT Pin=NFC-30
Added Pin To Net: NetName=GND Pin=NFC-31
Added Pin To Net: NetName=XIN Pin=Q1-1
Added Pin To Net: NetName=XOUT Pin=Q1-3
Added Member To Class: ClassName=NFC Member=Component NFC RX95HF
Added Member To Class: ClassName=NFC Member=Component Q1 XRCGB27M000F0G00R0
